[
    { "id": 20000000, "from":  10000, "to": 100000, "type": "CHILD" },

    { "id": 20000000, "from":  10001, "to": 100001, "type": "CHILD" },
    { "id": 20000000, "from":  10001, "to": 100002, "type": "CHILD" },
    { "id": 20000000, "from":  10001, "to": 100003, "type": "CHILD" },
    { "id": 20000000, "from":  10001, "to": 100004, "type": "CHILD" },

    { "id": 20000000, "from":  10002, "to": 100005 , "type": "CHILD" },
    { "id": 20000000, "from":  10002, "to": 100006 , "type": "CHILD" },
    { "id": 20000000, "from":  10002, "to": 100007 , "type": "CHILD" },

    { "id": 20000000, "from":  10003, "to": 100008, "type": "CHILD" },

    { "id": 20000000, "from":  10004, "to": 100009, "type": "CHILD" },
    { "id": 20000000, "from":  10004, "to": 100010, "type": "CHILD" },
    { "id": 20000000, "from":  10004, "to": 100011, "type": "CHILD" }
]
